%YAML 1.1
%TAG !u! tag:unity3d.com,2011:
--- !u!1045 &1
EditorBuildSettings:
  m_ObjectHideFlags: 0
  serializedVersion: 2
  m_Scenes:
  - enabled: 1
    path: Assets/Scenes/Title.unity
    guid: 567a37842b9346e468d385b834205e98
  - enabled: 1
    path: Assets/Scenes/Hell Blitz.unity
    guid: 86c22b432eaeef14697578491feeb456
  m_configObjects: {}
